{
  "name": "Ximilar Recognition API",
  "apiVersion": "2020-03",
  "baseUrl": "https://api.dev.ximilar.com/",
  "description": "Ximilar Recognition service API",
  "operations": {
    "Base": {
      "errorResponses": [
        {
          "code": 500,
          "reason": "Server Error",
          "class": "string"
        },
        {
          "code": [401, 402, 403],
          "reason": "Authorization Exception",
          "class": "string"
        },
        {
          "code": [400],
          "reason": "Invalid parameters",
          "class": "string"
        }
      ]
    },
    "Delete": {
      "extends": "Detail",
      "httpMethod": "DELETE"
    },
    "Retrieve": {
      "extends": "Detail",
      "responseModel": "DetailResponse",
      "httpMethod": "GET"
    },
    "Patch": {
      "extends": "Detail",
      "responseModel": "DetailResponse",
      "httpMethod": "PATCH",
      "additionalParameters": {
        "location": "json"
      }
    },
    "Create": {
      "responseModel": "DetailResponse",
      "httpMethod": "POST",
      "additionalParameters": {
        "location": "json"
      }
    },
    "Detail": {
      "extends": "Base",
      "parameters": {
        "id": {
          "location": "uri",
          "required": true
        }
      }
    },
    "List": {
      "extends": "Base",
      "httpMethod": "GET",
      "additionalParameters": {
        "location": "query"
      }
    },
    "PagedList": {
      "extends": "List",
      "responseModel": "ListResponse",
      "parameters": {
        "page": {
          "type": "string",
          "location": "query",
          "required": false
        },
        "page_size": {
          "type": "number",
          "location": "query",
          "required": false
        }
      }
    },
    "ResourceCreate": {
      "httpMethod": "POST",
      "uri": "/account/v2/resource",
      "summary": "Checks and creates new resource",
      "parameters": {
        "service": {
          "location": "json",
          "type": "string",
          "required": true
        }
      }
    },
    "RecognitionTasksList": {
      "extends": "PagedList",
      "uri": "/recognition/v2/task",
      "summary": "Returns list of Recognition Tasks"
    },
    "RecognitionTaskRetrieve": {
      "extends": "Retrieve",
      "uri": "/recognition/v2/task/{id}",
      "summary": "Retrieves a Recognition Task"
    },
    "RecognitionTaskDelete": {
      "extends": "Delete",
      "uri": "/recognition/v2/task/{id}",
      "summary": "Deletes a Recognition Task"
    },
    "RecognitionTaskPatch": {
      "extends": "Patch",
      "uri": "/recognition/v2/task/{id}",
      "summary": "Patches Recognition Task"
    },
    "RecognitionTaskCreate": {
      "extends": "Create",
      "uri": "/recognition/v2/task",
      "summary": "Creates new Recognition Task",
      "parameters": {
        "name": {
          "location": "json",
          "type": "string",
          "required": true
        }
      }
    },
    "RecognitionLabelList": {
      "extends": "PagedList",
      "uri": "/recognition/v2/label",
      "summary": "Returns list of Recognition Labels"
    },
    "RecognitionLabelRetrieve": {
      "extends": "Retrieve",
      "uri": "/recognition/v2/label/{id}",
      "summary": "Retrieves a Recognition Label"
    },
    "RecognitionLabelDelete": {
      "extends": "Delete",
      "uri": "/recognition/v2/label/{id}",
      "summary": "Deletes a Recognition Label"
    },
    "RecognitionLabelPatch": {
      "extends": "Patch",
      "uri": "/recognition/v2/label/{id}",
      "summary": "Patches Recognition Label"
    },
    "RecognitionLabelCreate": {
      "extends": "Create",
      "uri": "/recognition/v2/label",
      "summary": "Creates new Recognition Label",
      "parameters": {
        "name": {
          "location": "json",
          "type": "string",
          "required": true
        }
      }
    }
  },
  "models": {
    "BaseResponse": {
      "type": "object",
      "properties": {
      },
      "additionalProperties": {
        "location": "json"
      }
    },
    "DetailResponse": {
      "type": "object",
      "properties": {
        "id": {
          "type": "string",
          "location": "json"
        }
      },
      "additionalProperties": {
        "location": "json"
      }
    },
    "ListResponse": {
      "type": "object",
      "extends": "BaseResponse"
    }
  }
}